{
    "game":
    [
    ],
    "ui":
    [
        "ImageProcessing.Shared.lua"
        , "ImageProcessing.Configuration.lua"
        , "UI.ImageProcessing.Main.lua"

        , "Image.HL3.lua"
        , "Image.GordonFreeman.lua"
        , "Image.Ralsei.lua"
        , "Image.DouglasJacob.lua"
        , "UI.Image.Test.lua"
    ]
}